cancensus • cancensus
…
As other Census datasets become available via the CensusMapper API, they will be listed as output when calling list_census_datasets().

Census Regions

Census data is aggregated at multiple geographic levels. Census geographies at the national (C), provincial (PR), census metropolitan area (CMA), census division (CD), and census subdivision (CSD) are defined as named census regions.

Canadian Census geography can change in between Census periods. cancensus provides a function, list_census_regions(dataset), to display all named census regions and their corresponding id for a given census dataset.

list_census_regions("CA16")
#> # A tibble: 5,504 x 8
#>    region                      name level      pop municipal_status
#>     <chr>                     <chr> <chr>    <int>            <chr>
#>  1     01                    Canada     C 35151728             <NA>
#>  2     35                   Ontario    PR 13448494             <NA>
#>  3     24                    Quebec    PR  8164361             <NA>
#>  4     59          British Columbia    PR  4648055             <NA>
#>  5     48                   Alberta    PR  4067175             <NA>
#>  6     46                  Manitoba    PR  1278365             <NA>
#>  7     47              Saskatchewan    PR  1098352             <NA>
#>  8     12               Nova Scotia    PR   923598             <NA>
#>  9     13             New Brunswick    PR   747101             <NA>
#> 10     10 Newfoundland and Labrador    PR   519716             <NA>
#> # ... with 5,494 more rows, and 3 more variables: CMA_UID <int>,
#> #   CD_UID <int>, PR_UID <int>
…
Selecting regions = "59933" and level = "CT" will return data for all 478 census tracts in the Vancouver Census Metropolitan Area. Selecting level = "DA" will return data for all 3450 dissemination areas. Working with CT and DA level data significantly increases the size of data downloads and API usage. cancensus relies on local data caching to reduce usage and load times.

Setting level = "Regions" will produce data strictly for the selected region without any tiling of data at lower census aggregation levels levels.

Working with Census Variables

Census data contains thousands of different geographic regions as well as thousands of unique variables. In addition to enabling programmatic and reproducible access to Census data, cancensus has a number of tools to help users find the data they are looking for.

Displaying available Census variables

Run list_census_vectors(dataset) to view all available Census variables for a given dataset.

list_census_vectors("CA16")
#> # A tibble: 6,611 x 7
#>        vector   type                                         label  units
#>         <chr> <fctr>                                         <chr> <fctr>
#>  1 v_CA16_401  Total                              Population, 2016 Number
#>  2 v_CA16_402  Total                              Population, 2011 Number
#>  3 v_CA16_403  Total    Population percentage change, 2011 to 2016 Number
#>  4 v_CA16_404  Total                       Total private dwellings Number
#>  5 v_CA16_405  Total Private dwellings occupied by usual residents Number
#>  6 v_CA16_406  Total       Population density per square kilometre  Ratio
#>  7 v_CA16_407  Total                Land area in square kilometres Number
#>  8   v_CA16_1  Total                                   Total - Age Number
#>  9   v_CA16_2   Male                                   Total - Age Number
#> 10   v_CA16_3 Female                                   Total - Age Number
#> # ... with 6,601 more rows, and 3 more variables: parent_vector <chr>,
#> #   aggregation <chr>, details <chr>
…
