…
The function
[`list_census_datasets()`](https://mountainmath.github.io/cancensus/reference/list_census_datasets.md)
will show all available datasets alongside their metadata.

``` r

list_census_datasets()
#> # A tibble: 29 × 6
#>    dataset description           geo_dataset attribution reference reference_url
#>    <chr>   <chr>                 <chr>       <chr>       <chr>     <chr>        
#>  1 CA1996  1996 Canada Census    CA1996      StatCan 19… 92-351-U  https://www1…
#>  2 CA01    2001 Canada Census    CA01        StatCan 20… 92-378-X  https://www1…
#>  3 CA06    2006 Canada Census    CA06        StatCan 20… 92-566-X  https://www1…
#>  4 CA11    2011 Canada Census a… CA11        StatCan 20… 98-301-X… https://www1…
#>  5 CA16    2016 Canada Census    CA16        StatCan 20… 98-301-X  https://www1…
#>  6 CA21    2021 Canada Census    CA21        StatCan 20… 98-301-X  https://www1…
#>  7 CA01xSD 2001 Canada Census x… CA01        StatCan 20… 92-378-X  https://www1…
#>  8 CA06xSD 2006 Canada Census x… CA06        StatCan 20… 92-566-X  https://www1…
#>  9 CA11xSD 2011 Canada Census x… CA11        StatCan 20… 98-301-X  https://www1…
#> 10 CA16xSD 2016 Canada Census x… CA16        StatCan 20… 98-301-X  https://www1…
#> # ℹ 19 more rows
```
…
Census data is aggregated at multiple [geographic
levels](#id_##%20Census%20Geographic%20Levels). Census geographies at
the national (C), provincial (PR), census metropolitan area (CMA),
census agglomeration (CA), census division (CD), and census subdivision
(CSD) are defined as named census regions.

Canadian Census geography can change in between Census periods.
**cancensus** provides a function, `list_census_regions(dataset)`, to
display all named census regions and their corresponding id for a given
census dataset.

``` r

list_census_regions("CA21")
#> # A tibble: 5,518 × 8
#>    region name               level    pop municipal_status CMA_UID CD_UID PR_UID
#>    <chr>  <chr>              <chr>  <int> <chr>            <chr>   <chr>  <chr> 
#>  1 01     Canada             C     3.70e7 NA               NA      NA     NA    
#>  2 35     Ontario            PR    1.42e7 Ont.             NA      NA     NA    
#>  3 24     Quebec             PR    8.50e6 Que.             NA      NA     NA    
#>  4 59     British Columbia   PR    5.00e6 B.C.             NA      NA     NA    
#>  5 48     Alberta            PR    4.26e6 Alta.            NA      NA     NA    
#>  6 46     Manitoba           PR    1.34e6 Man.             NA      NA     NA    
#>  7 47     Saskatchewan       PR    1.13e6 Sask.            NA      NA     NA    
#>  8 12     Nova Scotia        PR    9.69e5 N.S.             NA      NA     NA    
#>  9 13     New Brunswick      PR    7.76e5 N.B.             NA      NA     NA    
#> 10 10     Newfoundland and … PR    5.11e5 N.L.             NA      NA     NA    
#> # ℹ 5,508 more rows
```
…
Census data contains thousands of different geographic regions as well
as thousands of unique variables. In addition to enabling programmatic
and reproducible access to Census data, **cancensus** has a number of
tools to help users find the data they are looking for.

### Displaying available Census variables

Run `list_census_vectors(dataset)` to view all available Census
variables for a given dataset.

``` r

list_census_vectors("CA21")
#> # A tibble: 7,709 × 7
#>    vector    type   label                units parent_vector aggregation details
#>    <chr>     <fct>  <chr>                <fct> <chr>         <chr>       <chr>  
#>  1 v_CA21_1  Total  Population, 2021     Numb… NA            Additive    CA 202…
#>  2 v_CA21_2  Total  Population, 2016     Numb… NA            Additive    CA 202…
#>  3 v_CA21_3  Total  Population percenta… Numb… NA            Average of… CA 202…
#>  4 v_CA21_4  Total  Total private dwell… Numb… NA            Additive    CA 202…
#>  5 v_CA21_5  Total  Private dwellings o… Numb… v_CA21_4      Additive    CA 202…
#>  6 v_CA21_6  Total  Population density … Ratio NA            Average of… CA 202…
#>  7 v_CA21_7  Total  Land area in square… Numb… NA            Additive    CA 202…
#>  8 v_CA21_8  Total  Total - Age          Numb… NA            Additive    CA 202…
#>  9 v_CA21_9  Male   Total - Age          Numb… NA            Additive    CA 202…
#> 10 v_CA21_10 Female Total - Age          Numb… NA            Additive    CA 202…
#> # ℹ 7,699 more rows
```
…
