Data discovery • cancensus
…
            Resources for finding available and relevant data

      Source: vignettes/data_discovery.Rmd
      data_discovery.Rmd

Census datasets

cancensus can access Statistics Canada Census data for the 1996, 2001, 2006 Censuses, the 2011 Census and National Household Survey, as well as the 2016 Census. You can run list_census_datasets to check what datasets are currently available for access through the CensusMapper API. Additional data for the 2016 Census will be included in CensusMapper within a day or two after public release by Statistics Canada. Statistics Canada maintains a release schedule for the Census 2016 Program which can be viewed on their website.

Thanks to contributions by the Canada Mortgage and Housing Corporation (CMHC), cancensus now includes additional Census-linked datasets as open-data releases. These include annual tax-filer data at the census tract level for tax years 2000 through 2017, which includes data on incomes and demographics, as well as specialized crosstabs for Structural type of dwelling by Document type, which details occupancy status for residences. These crosstabs are available for the 2001, 2006, 2011, and 2016 Census years at all levels starting with census tract.

list_census_datasets()

## # A tibble: 28 x 6
##    dataset description     geo_dataset attribution   reference reference_url    
##    <chr>   <chr>           <chr>       <chr>         <chr>     <chr>            
##  1 CA1996  1996 Canada Ce… CA1996      StatCan 1996… 92-351-U  https://www150.s…
##  2 CA01    2001 Canada Ce… CA01        StatCan 2001… 92-378-X  https://www150.s…
##  3 CA06    2006 Canada Ce… CA06        StatCan 2006… 92-566-X  https://www150.s…
##  4 CA11    2011 Canada Ce… CA11        StatCan 2011… 98-301-X… https://www12.st…
##  5 CA16    2016 Canada Ce… CA16        StatCan 2016… 98-301-X  https://www150.s…
##  6 CA01xSD 2001 Canada Ce… CA01        StatCan 2001… 92-378-X  https://www150.s…
##  7 CA06xSD 2006 Canada Ce… CA06        StatCan 2006… 92-566-X  https://www150.s…
##  8 CA11xSD 2011 Canada Ce… CA11        StatCan 2011… 98-301-X  https://www150.s…
##  9 CA16xSD 2016 Canada Ce… CA16        StatCan 2016… 98-301-X  https://www150.s…
## 10 TX2000  2000 T1FF taxf… CA1996      StatCan 2000… 72-212-X  https://www150.s…
## # … with 18 more rows
…
The Census datasets that the cancensus package provides access to are rich in detail but they can be complex to navigate. There are thousands of variable vectors, including separate vector indicators for aggregations split by Total, Female, and Male populations. As a result, the total number of vectors per dataset is significant, ranging from 1,715 in the CA01 dataset to 6,623 in the CA16 one.

View available Census variable vectors

list_census_vectors('CA16')

## # A tibble: 6,623 x 7
##    vector  type   label       units parent_vector aggregation  details          
##    <chr>   <fct>  <chr>       <fct> <chr>         <chr>        <chr>            
##  1 v_CA16… Total  Population… Numb… <NA>          Additive     CA 2016 Census; …
##  2 v_CA16… Total  Population… Numb… <NA>          Additive     CA 2016 Census; …
##  3 v_CA16… Total  Population… Numb… <NA>          Average of … CA 2016 Census; …
##  4 v_CA16… Total  Total priv… Numb… <NA>          Additive     CA 2016 Census; …
##  5 v_CA16… Total  Private dw… Numb… v_CA16_404    Additive     CA 2016 Census; …
##  6 v_CA16… Total  Population… Ratio <NA>          Average of … CA 2016 Census; …
##  7 v_CA16… Total  Land area … Numb… <NA>          Additive     CA 2016 Census; …
##  8 v_CA16… Total  Total - Age Numb… <NA>          Additive     CA 2016 Census; …
##  9 v_CA16… Male   Total - Age Numb… <NA>          Additive     CA 2016 Census; …
## 10 v_CA16… Female Total - Age Numb… <NA>          Additive     CA 2016 Census; …
## # … with 6,613 more rows
…
Keyword search will show all results that have the highest number of unique keyword matches. What happens if there are other keyword matches that have fewer total matches? By default, the function argument is set as interactive = TRUE, which will prompt the user with a console menu option to see the rest of the matches or not. If using find_census_vectors() in a script or reproducible documentation, we recommend setting this argument to interactive = FALSE.

Semantic search

Semantic search works best with phrases. Rather than the decontextualized unigrams of keyword search, semantic search splits queries and vector details into n-grams and finds matches using approximate string distances based on the generalized Levenshtein distance.

find_census_vectors("after tax incomes", dataset = "CA16", type = "total", query_type = "semantic")

## # A tibble: 56 x 4
##    vector   type  label                          details                        
##    <chr>    <fct> <chr>                          <chr>                          
##  1 v_CA16_… Total Number of after-tax income re… Income; Individuals; Total - I…
##  2 v_CA16_… Total Median after-tax income in 20… Income; Individuals; Total - I…
##  3 v_CA16_… Total Percentage with after-tax inc… Income; Individuals; Total - I…
##  4 v_CA16_… Total Total - After-tax income grou… Income; Individuals; Total - A…
##  5 v_CA16_… Total Without after-tax income       Income; Individuals; Total - A…
##  6 v_CA16_… Total With after-tax income          Income; Individuals; Total - A…
##  7 v_CA16_… Total Under $10,000 (including loss) Income; Individuals; Total - A…
##  8 v_CA16_… Total $10,000 to $19,999             Income; Individuals; Total - A…
##  9 v_CA16_… Total $20,000 to $29,999             Income; Individuals; Total - A…
## 10 v_CA16_… Total $30,000 to $39,999             Income; Individuals; Total - A…
## # … with 46 more rows
…
Aside: dissemination areas, blocks, and enumeration areas

Dissemination areas (DA) are the smallest atomic geographic unit at which all census data is captured. DAs cover the entirety of Canada and follow the boundaries of census subdivisions and census tracts. While inter-census geographic stability is not guaranteed, they generally tend to be as stable as the census tracts and census subdivisions that they make up. In addition to census boundaries, DAs will generally follow natural boundaries created by other spatial features like roads, railways, water features, and designed to be spatially compact and with a target population around 400-700 persons. The 2016 census data has 56,589 distinct DAs.

Enumeration areas (EA) were the DA equivalent for censuses prior to 2001. Similar to DAs, EAs were used to as the basic level at which census data was collected. They do not necessarily correspond accurately to DAs in data from 2001 onwards.

Dissemination block (DB) level data is available for the 2001-2016 datasets. DBs are essentially city blocks, bounded by intersecting streets and therefore are largely the product of road networks at the time of the census. The geographies and identification codes of DBs are not necessarily stable over time. DBs are split whenever they intersect with boundaries of higher geographic levels in such a way as to ensure that they can be aggregated upwards precisely. DBs only provide data for population, dwelling counts, and number of households (from 2006 onwards) without any additional characteristic data. DBs with population under 15 have their population counts adjusted for privacy. For the 2016 census, there are close to half a million DB distinct regions.

Viewing available Census regions

For any valid Census dataset, you can view all available Census regions by calling list_census_regions(dataset). This will retrieve the region code, the name, and the level code indicating the type of geography. Other information includes population, municipal status, as well as parent geographic ids for lower levels. All CMAs are included with their own defined geography, as well as those CAs which have their own Census tracts.

list_census_regions('CA16')

## # A tibble: 5,504 x 8
##    region name              level     pop municipal_status CMA_UID CD_UID PR_UID
##    <chr>  <chr>             <chr>   <int> <chr>            <chr>   <chr>  <chr> 
##  1 01     Canada            C      3.52e7 <NA>             <NA>    <NA>   <NA>  
##  2 35     Ontario           PR     1.34e7 <NA>             <NA>    <NA>   <NA>  
##  3 24     Quebec            PR     8.16e6 <NA>             <NA>    <NA>   <NA>  
##  4 59     British Columbia  PR     4.65e6 <NA>             <NA>    <NA>   <NA>  
##  5 48     Alberta           PR     4.07e6 <NA>             <NA>    <NA>   <NA>  
##  6 46     Manitoba          PR     1.28e6 <NA>             <NA>    <NA>   <NA>  
##  7 47     Saskatchewan      PR     1.10e6 <NA>             <NA>    <NA>   <NA>  
##  8 12     Nova Scotia       PR     9.24e5 <NA>             <NA>    <NA>   <NA>  
##  9 13     New Brunswick     PR     7.47e5 <NA>             <NA>    <NA>   <NA>  
## 10 10     Newfoundland and… PR     5.20e5 <NA>             <NA>    <NA>   <NA>  
## # … with 5,494 more rows
…
