…
Thanks to contributions by the Canada Mortgage and Housing Corporation
(CMHC), `cancensus` now includes additional Census-linked datasets as
open-data releases. These include annual tax-filer data at the census
tract level for tax years 2000 through 2017, which includes data on
incomes and demographics, as well as specialized crosstabs for
Structural type of dwelling by Document type, which details occupancy
status for residences. These crosstabs are available for the 2001, 2006,
2011, and 2016 Census years at all levels starting with census tract.

``` r

list_census_datasets()
#> # A tibble: 29 × 6
#>    dataset description           geo_dataset attribution reference reference_url
#>    <chr>   <chr>                 <chr>       <chr>       <chr>     <chr>        
#>  1 CA1996  1996 Canada Census    CA1996      StatCan 19… 92-351-U  https://www1…
#>  2 CA01    2001 Canada Census    CA01        StatCan 20… 92-378-X  https://www1…
#>  3 CA06    2006 Canada Census    CA06        StatCan 20… 92-566-X  https://www1…
#>  4 CA11    2011 Canada Census a… CA11        StatCan 20… 98-301-X… https://www1…
#>  5 CA16    2016 Canada Census    CA16        StatCan 20… 98-301-X  https://www1…
#>  6 CA21    2021 Canada Census    CA21        StatCan 20… 98-301-X  https://www1…
#>  7 CA01xSD 2001 Canada Census x… CA01        StatCan 20… 92-378-X  https://www1…
#>  8 CA06xSD 2006 Canada Census x… CA06        StatCan 20… 92-566-X  https://www1…
#>  9 CA11xSD 2011 Canada Census x… CA11        StatCan 20… 98-301-X  https://www1…
#> 10 CA16xSD 2016 Canada Census x… CA16        StatCan 20… 98-301-X  https://www1…
#> # ℹ 19 more rows
```
…
The Census datasets that the `cancensus` package provides access to are
rich in detail but they can be complex to navigate. There are thousands
of variable vectors, including separate vector indicators for
aggregations split by `Total`, `Female`, and `Male` populations. As a
result, the total number of vectors per dataset is significant, ranging
from 1,715 in the `CA01` dataset to 6,623 in the `CA16` one.

### View available Census variable vectors

``` r

list_census_vectors('CA21')
#> # A tibble: 7,709 × 7
#>    vector    type   label                units parent_vector aggregation details
#>    <chr>     <fct>  <chr>                <fct> <chr>         <chr>       <chr>  
#>  1 v_CA21_1  Total  Population, 2021     Numb… NA            Additive    CA 202…
#>  2 v_CA21_2  Total  Population, 2016     Numb… NA            Additive    CA 202…
#>  3 v_CA21_3  Total  Population percenta… Numb… NA            Average of… CA 202…
#>  4 v_CA21_4  Total  Total private dwell… Numb… NA            Additive    CA 202…
#>  5 v_CA21_5  Total  Private dwellings o… Numb… v_CA21_4      Additive    CA 202…
#>  6 v_CA21_6  Total  Population density … Ratio NA            Average of… CA 202…
#>  7 v_CA21_7  Total  Land area in square… Numb… NA            Additive    CA 202…
#>  8 v_CA21_8  Total  Total - Age          Numb… NA            Additive    CA 202…
#>  9 v_CA21_9  Male   Total - Age          Numb… NA            Additive    CA 202…
#> 10 v_CA21_10 Female Total - Age          Numb… NA            Additive    CA 202…
#> # ℹ 7,699 more rows
```
…
#### Semantic search

Semantic search works best with phrases. Rather than the
decontextualized unigrams of keyword search, semantic search splits
queries and vector details into n-grams and finds matches using
approximate string distances based on the generalized Levenshtein
distance.

``` r

find_census_vectors("after tax incomes", dataset = "CA16", type = "total", query_type = "semantic")
#> # A tibble: 56 × 4
#>    vector      type  label                                               details
#>    <chr>       <fct> <chr>                                               <chr>  
#>  1 v_CA16_2210 Total Number of after-tax income recipients aged 15 year… Income…
#>  2 v_CA16_2213 Total Median after-tax income in 2015 among recipients (… Income…
#>  3 v_CA16_2306 Total Percentage with after-tax income                    Income…
#>  4 v_CA16_2297 Total Total - After-tax income groups in 2015 for the po… Income…
#>  5 v_CA16_2300 Total Without after-tax income                            Income…
#>  6 v_CA16_2303 Total With after-tax income                               Income…
#>  7 v_CA16_2309 Total Under $10,000 (including loss)                      Income…
#>  8 v_CA16_2312 Total $10,000 to $19,999                                  Income…
#>  9 v_CA16_2315 Total $20,000 to $29,999                                  Income…
#> 10 v_CA16_2318 Total $30,000 to $39,999                                  Income…
#> # ℹ 46 more rows
```
…
### Viewing available Census regions

For any valid Census dataset, you can view all available Census regions
by calling `list_census_regions(dataset)`. This will retrieve the
`region` code, the `name`, and the `level` code indicating the type of
geography. Other information includes population, municipal status, as
well as parent geographic ids for lower levels. All CMAs are included
with their own defined geography, as well as those CAs which have their
own Census tracts.

``` r

list_census_regions('CA21')
#> # A tibble: 5,518 × 8
#>    region name               level    pop municipal_status CMA_UID CD_UID PR_UID
#>    <chr>  <chr>              <chr>  <int> <chr>            <chr>   <chr>  <chr> 
#>  1 01     Canada             C     3.70e7 NA               NA      NA     NA    
#>  2 35     Ontario            PR    1.42e7 Ont.             NA      NA     NA    
#>  3 24     Quebec             PR    8.50e6 Que.             NA      NA     NA    
#>  4 59     British Columbia   PR    5.00e6 B.C.             NA      NA     NA    
#>  5 48     Alberta            PR    4.26e6 Alta.            NA      NA     NA    
#>  6 46     Manitoba           PR    1.34e6 Man.             NA      NA     NA    
#>  7 47     Saskatchewan       PR    1.13e6 Sask.            NA      NA     NA    
#>  8 12     Nova Scotia        PR    9.69e5 N.S.             NA      NA     NA    
#>  9 13     New Brunswick      PR    7.76e5 N.B.             NA      NA     NA    
#> 10 10     Newfoundland and … PR    5.11e5 N.L.             NA      NA     NA    
#> # ℹ 5,508 more rows
```
…
