Additional datasets: Annual T1FF taxfiler data • cancensus
…
And, as an example, available data vectors for one such T1FF
dataset.

list_census_vectors('TX2017')
#> # A tibble: 818 × 7
#>    vector      type  label           units     parent_vector aggregation details
#>    <chr>       <fct> <chr>           <fct>     <chr>         <chr>       <chr>  
#>  1 v_TX2017_1  Total Taxfilers - #   Number    NA            Additive    Tax da…
#>  2 v_TX2017_3  Total % 0-24          Percenta… v_TX2017_1    Average of… Tax da…
#>  3 v_TX2017_4  Total % 25-44         Percenta… v_TX2017_1    Average of… Tax da…
#>  4 v_TX2017_5  Total % 45-64         Percenta… v_TX2017_1    Average of… Tax da…
#>  5 v_TX2017_6  Total % 65+           Percenta… v_TX2017_1    Average of… Tax da…
#>  6 v_TX2017_7  Total Average - Age   Ratio     v_TX2017_1    Average of… Tax da…
#>  7 v_TX2017_8  Total % female        Percenta… v_TX2017_1    Average of… Tax da…
#>  8 v_TX2017_9  Total % married       Percenta… v_TX2017_1    Average of… Tax da…
#>  9 v_TX2017_10 Total % in appt       Percenta… v_TX2017_1    Average of… Tax da…
#> 10 v_TX2017_11 Total All persons - # Number    NA            Additive    Tax da…
#> # ℹ 808 more rows
…
