Query the CensusMapper API for vectors using exact, semantic, or keyword search — find_census_vectors • cancensus
…
find_census_vectors('commuting duration', dataset = 'CA11', type = 'female', query_type = 'keyword')

#> # A tibble: 2 x 4
#>   vector    type  label                          details                        
#>   <chr>     <fct> <chr>                          <chr>                          
#> 1 v_CA11N_… Fema… Total employed population age… CA 2011 NHS; Commute; Total em…
#> 2 v_CA11N_… Fema… Median commuting duration      CA 2011 NHS; Commute; Total em…

find_census_vectors('after tax income', dataset = 'CA16', type = 'total', query_type = 'semantic')

#> Multiple possible matches. Results ordered by closeness.
#> # A tibble: 56 x 4
#>    vector   type  label                          details                        
#>    <chr>    <fct> <chr>                          <chr>                          
#>  1 v_CA16_… Total Number of after-tax income re… Income; Individuals; Total - I…
#>  2 v_CA16_… Total Median after-tax income in 20… Income; Individuals; Total - I…
#>  3 v_CA16_… Total Percentage with after-tax inc… Income; Individuals; Total - I…
#>  4 v_CA16_… Total Total - After-tax income grou… Income; Individuals; Total - A…
#>  5 v_CA16_… Total Without after-tax income       Income; Individuals; Total - A…
#>  6 v_CA16_… Total With after-tax income          Income; Individuals; Total - A…
#>  7 v_CA16_… Total Under $10,000 (including loss) Income; Individuals; Total - A…
#>  8 v_CA16_… Total $10,000 to $19,999             Income; Individuals; Total - A…
#>  9 v_CA16_… Total $20,000 to $29,999             Income; Individuals; Total - A…
#> 10 v_CA16_… Total $30,000 to $39,999             Income; Individuals; Total - A…
#> # … with 46 more rows
…
